6804 - Matlab Open Finger

fdata[0] => "finger Number"

==============================

6806 - Matlab Close Finger

fdata[0] => "finger Number"

==============================

6808 - Matlab Piano Press - Presses and releases a key

fdata[0] => "finger Number"
fdata[1] => time between the pressing and the releasing in miliseconds

==============================